<svg version="1.2" baseProfile="tiny-ps" class="tpwd-svg-logo" arialabelledby="title" xmlns="http://www.w3.org/2000/svg" viewBox="0 0 321.57 321.57">
  <title>Texas Parks and Wildlife</title>
  <g data-name="Layer 2">
    <g data-name="Layer 1">
      <polygon class="cls-1" fill="#ffffff" stroke="#008061" stroke-miterlimit="3.86" stroke-width="4.32px" points="2.16 2.16 319.41 2.16 319.41 319.41 2.16 319.41 2.16 2.16 2.16 2.16"></polygon>
      <polygon class="cls-2" fill="#008061" stroke="#008061" stroke-miterlimit="3.86" stroke-width="0.9px" points="18.66 19.7 303.66 19.7 303.66 303.16 18.66 303.16 18.66 19.7 18.66 19.7"></polygon>
      <path class="cls-3" fill="#ffffff" d="M67.32,68.32H82.18c1.48,0,2.1.49,2.1,1.54h.86V59.56h-.86c0,1-.62,1.48-2.1,1.48H43.7c-1.48,0-2.1-.49-2.1-1.48h-.86v10.3h.86c0-1,.62-1.54,2.1-1.54H58.56v34.9c0,1.36-.24,1.85-1.85,1.85v.87H69.23v-.87c-1.6,0-1.91-.49-1.91-1.85V68.32Z"></path>
      <path class="cls-3" fill="#ffffff" d="M89,105.94h40.58c1.48,0,2.09.49,2.09,1.35h.87V97.18h-.87c0,1-.61,1.48-2.09,1.48H99.32V86.57h19.36c1.48,0,2.1.5,2.1,1.48h.86V77.69h-.86c0,1.11-.62,1.61-2.1,1.61H99.32v-11H129c1.48,0,2.1.49,2.1,1.6h.86V59.68h-.86c0,.87-.62,1.36-2.1,1.36H89v.86c1.36,0,1.6.5,1.6,1.85v39.47c0,1.36-.24,1.85-1.6,1.85v.87Z"></path>
      <path class="cls-3" fill="#ffffff" d="M147.88,105.94v-.87c-.81,0-1.3-.31-1.3-.8s.25-.74.56-1.17L158.05,89l9,11.9c1.18,1.54,2.23,2.78,2.23,3.33s-.25.8-1.18.8v.87h14.43v-.87c-1.66-.06-2.09-.92-3.33-2.59L163.66,81.82,177.11,64.5c1.17-1.48,2-2.53,4-2.6V61h-13.7v.86c.56,0,1.05.31,1.05.81s-.37.86-.86,1.54l-8.76,11.28-8.38-11.22a4,4,0,0,1-.93-1.54c0-.62.49-.87,1.3-.87V61H136.28v.86a2.78,2.78,0,0,1,2.47,1.42L153.3,82.69l-15.41,19.79c-1.18,1.54-1.61,2.47-3.15,2.59v.87Z"></path>
      <path class="cls-4" fill="#ffffff" fill-rule="evenodd" d="M200.69,87.07,208,70.91l7.4,16.16Zm-6.48,18.87v-.87a.9.9,0,0,1-.92-.92c0-.8.92-2,4.5-10.05h21.15c4.13,8.81,4.69,9.68,4.69,10.36,0,.3-.31.61-1.11.61v.87h12.27v-.87c-1.29,0-1.54-.43-2.41-2.34L214.5,64.43a3.77,3.77,0,0,1-.55-1.6c0-.43.37-.8,1.29-.93V61H201.8v.86c.8.13,1.29.44,1.29,1.12a4.88,4.88,0,0,1-.68,1.85l-16.83,37.86c-.87,2-1.24,2.28-2.35,2.34v.87Z"></path>
      <path class="cls-3" fill="#ffffff" d="M281.36,65l-1-.31c-.18.19-.31.43-1.11.43s-8.26-4.69-19-4.69c-12,0-22.88,4.32-22.88,14.68,0,20.48,35.83,5.49,35.83,17.58,0,3.39-3.83,6.6-15.05,6.6-7.89,0-15.85-2.59-15.85-6.23,0-.5.12-.74.12-1l-1-.49-5.12,10.48.8.19c.31-.19.49-.5.86-.5,1.42,0,5.74,4.81,20.79,4.81,15.78,0,23.68-6.29,23.68-14.43,0-22.32-36.33-7.52-36.33-17.63,0-3.83,4.14-6.79,13.76-6.79,10.05,0,15.85,4.32,15.85,5.12a3.62,3.62,0,0,1-.13.86l1,.56L281.36,65Z"></path>
      <path class="cls-3" fill="#ffffff" d="M39.66,231.25v.61c.62.13.7.3,1.15,2l6.41,25.62a10.57,10.57,0,0,1,.5,2.31c0,.26-.21.52-.79.52V263H55v-.61a.73.73,0,0,1-.79-.69,7,7,0,0,1,.33-1.53L59.67,241h.08l5,18.43a11.56,11.56,0,0,1,.58,2.4c0,.26-.25.56-.79.56V263h8.06v-.61c-.41,0-.78-.21-.78-.61a10.41,10.41,0,0,1,.45-2.22l6.58-25.62c.37-1.44.45-1.83,1.2-2v-.61h-7v.61a.75.75,0,0,1,.83.74,5.68,5.68,0,0,1-.29,1.35l-4.76,19.26h-.08L63.52,233.6a4.8,4.8,0,0,1-.29-1c0-.39.16-.7.74-.74v-.61H56.12v.61a.72.72,0,0,1,.78.61,4.1,4.1,0,0,1-.25,1.17L51.4,253h-.08L46.6,233.64a7.49,7.49,0,0,1-.24-1.13c0-.48.33-.65.78-.65v-.61Z"></path>
      <path class="cls-3" fill="#ffffff" d="M91.8,233.17c0-1,.21-1.31,1.53-1.31v-.61H84.44v.61c1.32,0,1.49.35,1.49,1.31v27.89c0,.95-.17,1.3-1.49,1.3V263h8.89v-.61c-1.32,0-1.53-.35-1.53-1.3V233.17Z"></path><path class="cls-3" fill="#ffffff" d="M100.69,263h26.06c1,0,1.4.35,1.4,1h.58v-7.14h-.58c0,.69-.41,1-1.4,1H107.64V233.17c0-1,.17-1.31,1.24-1.31v-.61h-8.19v.61c.91,0,1.08.35,1.08,1.31v27.89c0,.95-.17,1.3-1.08,1.3V263Z"></path>
      <path class="cls-4" fill="#ffffff" fill-rule="evenodd" d="M134.2,261.06c0,.95-.16,1.3-1.15,1.3V263h19.18c8.52,0,14.06-5.31,14.06-15.86,0-9.54-4.46-15.86-15-15.86H133.05v.61c1,0,1.15.35,1.15,1.31v27.89Zm5.88-24.67h10.75c5.46,0,9.59,2.27,9.59,10.72,0,7.93-3.06,10.72-8.19,10.72H140.08V236.39Z"></path>
      <path class="cls-3" fill="#ffffff" d="M172.55,263h26c1,0,1.4.35,1.4,1h.58v-7.14H200c0,.69-.41,1-1.4,1H179.49V233.17c0-1,.17-1.31,1.24-1.31v-.61h-8.18v.61c.91,0,1.07.35,1.07,1.31v27.89c0,.95-.16,1.3-1.07,1.3V263Z"></path>
      <path class="cls-3" fill="#ffffff" d="M212.71,233.17c0-1,.21-1.31,1.53-1.31v-.61h-8.89v.61c1.33,0,1.49.35,1.49,1.31v27.89c0,.95-.16,1.3-1.49,1.3V263h8.89v-.61c-1.32,0-1.53-.35-1.53-1.3V233.17Z"></path><path class="cls-3" fill="#ffffff" d="M221.44,231.86c1,0,1.16.35,1.16,1.31v27.89c0,.95-.17,1.3-1.16,1.3V263h8.11v-.61c-.91,0-1.08-.35-1.08-1.3V249.29h12.16c1,0,1.4.35,1.4,1h.58V243H242c0,.79-.41,1.14-1.4,1.14H228.47v-7.76h18.86c1,0,1.4.35,1.4,1.13h.58v-7.23h-.58c0,.61-.41,1-1.4,1H221.44v.61Z"></path>
      <path class="cls-3" fill="#ffffff" d="M254,263h27.21c1,0,1.4.35,1.4,1h.58v-7.14h-.58c0,.69-.41,1-1.4,1H260.91v-8.54h13c1,0,1.41.35,1.41,1h.57V243h-.57c0,.79-.42,1.14-1.41,1.14h-13v-7.76h19.88c1,0,1.41.35,1.41,1.13h.58v-7.23h-.58c0,.61-.41,1-1.41,1H254v.61c.91,0,1.07.35,1.07,1.31v27.89c0,.95-.16,1.3-1.07,1.3V263Z"></path><path class="cls-4" fill="#ffffff" fill-rule="evenodd" d="M46.87,170.68H60c7.38,0,10.09-3.39,10.09-8.77s-3.39-8.77-10.09-8.77H39.66v.59c1,0,1.18.34,1.18,1.27v27.12c0,.93-.17,1.27-1.18,1.27v.6h8.4v-.6c-1,0-1.19-.34-1.19-1.27V170.68Zm0-12.54h13c3.23,0,4.16,1,4.16,3.77s-.93,3.77-4.16,3.77h-13v-7.54Z"></path>
      <path class="cls-4" fill="#ffffff" fill-rule="evenodd" d="M82.84,171l5-11.1L92.93,171Zm-4.46,13v-.6a.61.61,0,0,1-.63-.63c0-.55.63-1.4,3.09-6.91H95.39c2.85,6.06,3.23,6.65,3.23,7.12,0,.21-.22.42-.77.42v.6h8.45v-.6c-.9,0-1.07-.29-1.66-1.61l-12.3-26.31a2.63,2.63,0,0,1-.38-1.1c0-.3.25-.55.89-.64v-.59H83.6v.59c.55.09.89.3.89.77a3.26,3.26,0,0,1-.47,1.27l-11.58,26c-.59,1.36-.85,1.57-1.61,1.61v.6Z"></path>
      <path class="cls-4" fill="#ffffff" fill-rule="evenodd" d="M119.11,170.85h8.74l7.76,11.06c.43.59.55.81.55,1.14,0,.17-.08.34-.59.34v.6H145v-.6c-.89,0-1.23-.42-1.83-1.27L135.32,171c5.21-.8,8.31-4,8.31-9s-3.9-8.86-11.28-8.86H111.9v.59c1,0,1.19.34,1.19,1.27v27.12c0,.93-.17,1.27-1.19,1.27v.6h8.4v-.6c-1,0-1.19-.34-1.19-1.27V170.85Zm.13-12.71h12.85c3.06,0,5.52,1.19,5.52,3.86s-2.46,3.85-5.52,3.85H119.24v-7.71Z"></path>
      <path class="cls-3" fill="#ffffff" d="M163.57,168.82,174.48,182c.34.43.67.81.67,1.06s-.17.34-.72.38v.6h9.85v-.6a2.71,2.71,0,0,1-2-1.27l-14.08-17,11.88-9.58a7.86,7.86,0,0,1,3.22-1.78v-.59H173v.59c.3,0,.55.17.55.43s-.34.42-1.19,1.14l-14.21,11.4V155c0-.93.22-1.27,1.32-1.27v-.59H151v.59c.93,0,1.1.34,1.1,1.27v27.12c0,.93-.17,1.27-1.1,1.27v.6h8.44v-.6c-1.1,0-1.32-.34-1.32-1.27v-8.81l5.43-4.49Z"></path>
      <path class="cls-3" fill="#ffffff" d="M219.32,155.85l-.68-.21c-.13.13-.21.3-.76.3s-5.69-3.22-13.07-3.22c-8.23,0-15.74,3-15.74,10.08,0,14.07,24.65,3.77,24.65,12.08,0,2.33-2.63,4.53-10.35,4.53-5.43,0-10.9-1.78-10.9-4.28,0-.34.08-.51.08-.68l-.68-.34-3.52,7.21.55.12c.22-.12.34-.33.6-.33,1,0,3.94,3.3,14.29,3.3,10.86,0,16.29-4.32,16.29-9.91,0-15.34-25-5.17-25-12.12,0-2.63,2.84-4.66,9.46-4.66,6.91,0,10.9,3,10.9,3.51a2.22,2.22,0,0,1-.09.6l.68.38,3.27-6.36Z"></path>
      <path class="cls-5" stroke-miterlimit="3.86" fill="none" stroke="#ffffff"  d="M39.68,128.45h243m-242.75,79h243"></path>
      <path class="cls-3" fill="#ffffff" stroke-width="4.32px" d="M274.1,183.22h9l-1.93-1-5.62-6.12c1.77-2.13,1.91-6.73,3.41-7.48h-6.62c.87,1.5,0,3.24-.47,4.18l-6.14-5.7c3.82-1.58,7.14-4.13,7.14-7.71,0-4.85-4.94-7.27-10-7.27-5.37,0-9.5,2.85-9.5,7.23,0,2.64,1.93,4.64,4,6.64-4.54,1.79-9.07,4.51-9.07,8.81,0,5.71,5.2,9,12.44,9,4.6,0,8.14-1.23,11.07-4l3.16,2.78-.83.64Z"></path>
      <path class="cls-6" fill="#008061" d="M268,176.47c-1.21,1.24-4.79,2.11-7.79,2.36a9.1,9.1,0,0,1-4.62-1.25,3.67,3.67,0,0,1-1.59-2.36c-.75-3.12,4.5-4.5,7-5.75l7,7Z"></path>
      <path class="cls-6" fill="#008061" d="M263.22,156.1c2.44,0,4.13,1.37,4,3.1-.16,2.42-2.27,3.71-4.64,4.94-1.44-1.53-3.58-3.06-3.6-5.06s1.91-3,4.23-3Z"></path>
    </g>
  </g>
</svg>
